{
  "response": {
    "status": "false",
    "errorMessage": "System currently undergoing maintenance. We will strive to get everything working again as soon as possible. Thank you for your patience."
  }
}
